…
  read_csv("data/pols-month.csv") |> 
  janitor::clean_names() |> 
  separate(mon,into=c("year","month","day")) |> 
  mutate(
    year=as.integer(year),
    month = as.integer(month),
    day = as.integer(day)
  ) |> 
  mutate(month=month.name[month]) |> 
  mutate(president=if_else(prez_gop==1,"gop","dem")) |> 
  select(-prez_dem,-prez_gop,-day)
pols_df
```

    ## # A tibble: 822 × 9
    ##     year month     gov_gop sen_gop rep_gop gov_dem sen_dem rep_dem president
    ##    <int> <chr>       <dbl>   <dbl>   <dbl>   <dbl>   <dbl>   <dbl> <chr>    
    ##  1  1947 January        23      51     253      23      45     198 dem      
    ##  2  1947 February       23      51     253      23      45     198 dem      
    ##  3  1947 March          23      51     253      23      45     198 dem      
    ##  4  1947 April          23      51     253      23      45     198 dem      
    ##  5  1947 May            23      51     253      23      45     198 dem      
    ##  6  1947 June           23      51     253      23      45     198 dem      
    ##  7  1947 July           23      51     253      23      45     198 dem      
    ##  8  1947 August         23      51     253      23      45     198 dem      
    ##  9  1947 September      23      51     253      23      45     198 dem      
    ## 10  1947 October        23      51     253      23      45     198 dem      
    ## # ℹ 812 more rows
…
  read_csv("data/snp.csv") |> 
  janitor::clean_names() |> 
  separate(date,into=c("month","day","year"), sep="/") |> 
  mutate(
    year = as.integer(if_else(as.integer(year) > 15, paste0("19", year), paste0("20", year))),
    month = as.integer(month),
    day = as.integer(day)
  ) |> 
  mutate(month = month.name[month]) |> 
  select(year, month, close) |> 
  arrange(year, match(month, month.name))
snv_df
```

    ## # A tibble: 787 × 3
    ##     year month     close
    ##    <int> <chr>     <dbl>
    ##  1  1950 January    17.0
    ##  2  1950 February   17.2
    ##  3  1950 March      17.3
    ##  4  1950 April      18.0
    ##  5  1950 May        18.8
    ##  6  1950 June       17.7
    ##  7  1950 July       17.8
    ##  8  1950 August     18.4
    ##  9  1950 September  19.5
    ## 10  1950 October    19.5
    ## # ℹ 777 more rows
…
  read_csv("data/unemployment.csv") |> 
  janitor::clean_names() |> 
  pivot_longer(
    cols = jan:dec,
    names_to = "month",
    values_to = "unemployment"
  ) |> 
  mutate(
    month = month.name[match(tolower(month), tolower(month.abb))]
  ) |> 
  select(year, month, unemployment)
unemp_df
```

    ## # A tibble: 816 × 3
    ##     year month     unemployment
    ##    <dbl> <chr>            <dbl>
    ##  1  1948 January            3.4
    ##  2  1948 February           3.8
    ##  3  1948 March              4  
    ##  4  1948 April              3.9
    ##  5  1948 May                3.5
    ##  6  1948 June               3.6
    ##  7  1948 July               3.6
    ##  8  1948 August             3.9
    ##  9  1948 September          3.8
    ## 10  1948 October            3.7
    ## # ℹ 806 more rows

join snv into pols and merge in unemployment

``` r
merged_df =
  left_join(pols_df,snv_df, by = c("year", "month")) |> 
  left_join(unemp_df, by = c("year", "month"))
merged_df
```

    ## # A tibble: 822 × 11
    ##     year month   gov_gop sen_gop rep_gop gov_dem sen_dem rep_dem president close
    ##    <dbl> <chr>     <dbl>   <dbl>   <dbl>   <dbl>   <dbl>   <dbl> <chr>     <dbl>
    ##  1  1947 January      23      51     253      23      45     198 dem          NA
    ##  2  1947 Februa…      23      51     253      23      45     198 dem          NA
    ##  3  1947 March        23      51     253      23      45     198 dem          NA
    ##  4  1947 April        23      51     253      23      45     198 dem          NA
    ##  5  1947 May          23      51     253      23      45     198 dem          NA
    ##  6  1947 June         23      51     253      23      45     198 dem          NA
    ##  7  1947 July         23      51     253      23      45     198 dem          NA
    ##  8  1947 August       23      51     253      23      45     198 dem          NA
    ##  9  1947 Septem…      23      51     253      23      45     198 dem          NA
    ## 10  1947 October      23      51     253      23      45     198 dem          NA
    ## # ℹ 812 more rows
    ## # ℹ 1 more variable: unemployment <dbl>
…
    ## New names:
    ## • `` -> `...15`
    ## • `` -> `...16`

``` r
mr_trash
```

    ## # A tibble: 707 × 15
    ##    dumpster month  year date                weight_tons volume_cubic_yards
    ##       <dbl> <chr> <int> <dttm>                    <dbl>              <dbl>
    ##  1        1 May    2014 2014-05-16 00:00:00        4.31                 18
    ##  2        2 May    2014 2014-05-16 00:00:00        2.74                 13
    ##  3        3 May    2014 2014-05-16 00:00:00        3.45                 15
    ##  4        4 May    2014 2014-05-17 00:00:00        3.1                  15
    ##  5        5 May    2014 2014-05-17 00:00:00        4.06                 18
    ##  6        6 May    2014 2014-05-20 00:00:00        2.71                 13
    ##  7        7 May    2014 2014-05-21 00:00:00        1.91                  8
    ##  8        8 May    2014 2014-05-28 00:00:00        3.7                  16
    ##  9        9 June   2014 2014-06-05 00:00:00        2.52                 14
    ## 10       10 June   2014 2014-06-11 00:00:00        3.76                 18
    ## # ℹ 697 more rows
    ## # ℹ 9 more variables: plastic_bottles <dbl>, polystyrene <dbl>,
    ## #   cigarette_butts <dbl>, glass_bottles <dbl>, plastic_bags <dbl>,
    ## #   wrappers <dbl>, sports_balls <int>, homes_powered <dbl>, trash_wheel <chr>
…
